epoch,Train_loss,Test_loss,Train_f1_score,Train_auroc,Test_f1_score,Test_auroc
1,0.07959771156311035,0.03361023962497711,0.8461611802280605,0.9785756967485681,0.874261918211527,0.9792542386992961
2,0.029110493138432503,0.02130541019141674,0.890662494592103,0.9889953947637805,0.8949017539167561,0.977704559309482
3,0.04159758612513542,0.03078976832330227,0.8928601387960722,0.9888711865098714,0.8737414026388283,0.9801691672399826
4,0.03301208093762398,0.028317013755440712,0.9024256803932731,0.9909772308859615,0.8775520667142365,0.976797719905814
5,0.02918255142867565,0.6776847839355469,0.9067416208384875,0.9913495792687449,0.857767074806991,0.9355270844450421
6,0.02831258624792099,0.021861108019948006,0.9086686862531598,0.9917268373684093,0.8931189977974419,0.9772973321781939
7,0.027534788474440575,0.07348323613405228,0.9011891155853654,0.9901514322188835,0.8884729305471509,0.9768554148188214
8,0.028222426772117615,0.021645693108439445,0.9039146971137144,0.9908482203216991,0.8904527584405889,0.981551073931085
9,0.01998142898082733,0.024776244536042213,0.917028403258304,0.9930246608992586,0.8942475280453246,0.9816310630022604
10,0.01321002934128046,0.025291338562965393,0.9168375592140908,0.9931462707376554,0.8982006666647396,0.9811251205112906
11,0.01762518286705017,0.030656004324555397,0.9212154563470012,0.9938178968062817,0.8990407617869977,0.9815109185860911
12,0.016379617154598236,0.029706330969929695,0.9243341708787068,0.9942454278366495,0.9012946266767844,0.9800804263178945
13,0.015540383756160736,0.02076324075460434,0.9257969961145751,0.9945377539972083,0.9036851051295727,0.9803556551508319
14,0.016926659271121025,0.027128474786877632,0.9267722235949248,0.9947724954378889,0.90390399069221,0.9792869074747409
15,0.01753704436123371,0.027223000302910805,0.9263746228958728,0.9947479379717448,0.8959291655482078,0.9769294571565442
